<?xml version="1.0"?>
<svg xmlns="http://www.w3.org/2000/svg" viewBox="0 0 90 90">
  <defs>
    <style>
      polygon
      {
        fill: none;
        stroke: #C70D2C;
        stroke-linejoin: round;
        stroke-width: 2px;
      }
    </style>
  </defs>
  <polygon points="63.23 1 26.77 1 1 26.77 1 63.23 26.77 89 63.23 89 89 63.23 89 26.77 63.23 1"/>
  <polygon points="59.4 31.15 38.73 47.4 28.92 41.93 23.88 45.9 38.64 60.66 66.12 34.06 59.4 31.15"/>
</svg>
