<?xml version="1.0"?>
<svg xmlns="http://www.w3.org/2000/svg" viewBox="0 0 90 90">
  <defs>
    <style>
      circle,
      line,
      path,
      polygon
      {
        fill: none;
        stroke: #C70D2C;
        stroke-linecap: round;
        stroke-linejoin: round;
        stroke-width: 2px;
      }
    </style>
  </defs>
  <path d="M87.62,2.38c-17.27-4.85-33.31,4-40.83,11.54L11,49.76,40.24,79,76.08,43.21C83.59,35.69,92.46,19.65,87.62,2.38Z"/>
  <path d="M38.21,77,27.46,80l-9.17-9.17L16.61,69.2,10,62.54l3-10.75"/>
  <circle cx="43.31" cy="46.69" r="7" transform="translate(-20.33 44.3) rotate(-45)"/>
  <line x1="8.8" y1="70.97" x2="1.73" y2="78.04"/>
  <line x1="18.88" y1="81.11" x2="11.81" y2="88.18"/>
  <line x1="10.4" y1="79.7" x2="3.33" y2="86.77"/>
  <polygon points="38.23 22.37 16.04 25.72 1 40.76 19.44 41.63 48.37 70.56 49.24 89 64.28 73.96 67.63 51.77 38.23 22.37"/>
</svg>
